{
  "project_info": {
    "project_number": "220221469790",
    "firebase_url": "https://divino-menu-452a9-default-rtdb.firebaseio.com",
    "project_id": "divino-menu-452a9",
    "storage_bucket": "divino-menu-452a9.appspot.com"
  },
  "client": [
    {
      "client_info": {
        "mobilesdk_app_id": "1:220221469790:android:bd7f7a3ddbcdb39ad670cf",
        "android_client_info": {
          "package_name": "br.com.divino"
        }
      },
      "oauth_client": [
        {
          "client_id": "220221469790-mpb9jt3ul8thi8p9v69g6o97t80k1to8.apps.googleusercontent.com",
          "client_type": 1,
          "android_info": {
            "package_name": "br.com.divino",
            "certificate_hash": "4927755020564e58dc04140c479aaeeadde4b9d0"
          }
        },
        {
          "client_id": "220221469790-uup69ujrcifuebsejvr4k2vb3mh7niqp.apps.googleusercontent.com",
          "client_type": 1,
          "android_info": {
            "package_name": "br.com.divino",
            "certificate_hash": "542557161a76d76b64f32703b1fe1952bfe7c5a2"
          }
        },
        {
          "client_id": "220221469790-lb3ttgekhk1s9fpl3n7mvtv3g2qniuvj.apps.googleusercontent.com",
          "client_type": 3
        }
      ],
      "api_key": [
        {
          "current_key": "AIzaSyDsh3q8z7wfS9Diwbq27elYy873e2aCbNM"
        }
      ],
      "services": {
        "appinvite_service": {
          "other_platform_oauth_client": [
            {
              "client_id": "220221469790-lb3ttgekhk1s9fpl3n7mvtv3g2qniuvj.apps.googleusercontent.com",
              "client_type": 3
            }
          ]
        }
      }
    }
  ],
  "configuration_version": "1"
}